refuel_time,cycle_time,power_cap,duration,build_times,lifetimes,Totalpower
2,19,211.44210714867268,564,114,425,81405.17
1,14,531.0973446577075,588,48,535,265548.5
1,17,396.26094350131143,42,14,35,0.0
2,14,521.5666486670807,396,305,165,42246.927
3,18,463.25900705472117,552,243,33,0.0
3,15,244.98026014736388,384,17,143,29397.6
3,14,1141.9397336326351,576,277,65,63948.64
2,17,736.2608145094157,258,85,247,114120.455
2,19,1148.0498732847661,270,23,139,145802.35
2,14,336.09570056961195,216,175,52,12435.552
2,14,564.9860125916214,366,130,61,31074.23
2,16,329.98630884440274,234,217,78,5279.776
2,14,726.1026103545004,48,45,35,2178.309
1,17,762.4024964333731,516,163,209,150955.596
2,19,973.6836153686354,468,283,164,146052.6
3,17,495.6080935291371,282,231,239,22302.36
2,15,223.78870474327465,498,24,51,6713.67
2,17,756.549670610022,468,127,212,143744.5
2,18,1123.2472504167226,54,28,51,26958.0
1,14,397.99110284762946,432,90,153,56912.713
2,20,924.1381502358612,342,121,164,138620.7
1,16,1060.4315207711497,36,11,12,0.0
1,14,977.6766628977882,90,65,25,0.0
1,17,584.0133096529274,24,17,24,0.0
3,18,1068.2499311473707,276,222,88,51276.0
1,20,449.89821954352635,378,138,119,51288.372
3,16,840.0972259702249,90,77,68,10921.261
1,17,1190.0301895718821,354,253,311,114242.88
3,14,242.32901374750065,444,268,330,35380.034
2,18,637.243758226592,426,353,16,0.0
3,14,485.0509995842375,270,134,61,25222.652
1,15,269.5042842765845,156,124,152,8085.12
1,20,510.55307441643833,540,375,47,20422.12
3,18,326.7969337980604,162,102,114,17647.038
3,16,249.60916425297924,498,54,23,0.0
3,17,927.4298952936725,408,373,48,29677.76
1,17,1041.5382807087485,480,50,434,423906.78
2,16,1133.227884978895,282,209,224,73659.95
1,19,209.99830042905415,570,262,98,19739.812
2,18,917.1325667153366,180,140,122,33016.788
3,16,849.8676540610916,312,186,106,77337.988
3,14,464.64232959465005,306,97,40,13009.976
3,17,304.9638325650916,480,290,192,49709.132
1,15,1012.0954907159165,312,189,290,117403.6
3,17,1038.7802057262306,246,106,191,123614.82
2,19,637.6779939390015,450,242,362,121158.82
3,15,449.545092602094,552,378,545,66083.115
1,18,950.5405233676537,594,190,193,173949.003
1,18,818.7149251637771,576,53,544,406082.64
3,17,280.72241196932873,84,6,76,18808.374
1,19,940.1506101375335,36,27,32,0.0
2,14,1113.289545565933,588,187,514,390764.79
1,16,771.7403109492726,510,500,126,7717.4
2,15,893.2246161538646,300,246,234,42874.8
1,19,479.48772288012333,78,11,42,18220.544
3,16,758.4343102635153,132,130,129,1516.868
2,20,1004.6891289824907,276,224,245,48225.12
2,17,268.22386648523326,150,120,76,7510.272
3,16,1065.4911246319696,210,106,33,0.0
2,17,414.7969160369123,288,21,187,70100.693
3,16,863.8183409059537,330,29,86,63922.532
1,20,641.9040004029771,432,124,306,187435.968
3,15,1166.8034729817255,294,61,100,99178.0
3,20,1044.885771229217,420,101,26,0.0
1,17,378.9835165512735,564,169,185,66322.2
3,14,685.7942031772974,432,205,428,128929.272
1,20,872.5298075697592,120,18,85,69802.4
3,19,863.2320870678878,516,287,253,171783.168
1,18,1022.4616271604349,432,370,75,60325.14
3,17,270.00339614807274,48,14,46,8370.093
3,17,430.3156974492266,60,12,17,0.0
2,14,487.62928091812165,78,68,39,4876.29
3,18,499.3562938815587,456,276,354,77899.536
1,16,1027.194334601345,456,176,99,96555.86
3,19,556.5820640349679,522,389,78,38404.158
2,20,503.47159653884114,210,38,76,35243.04
2,16,268.7800471978365,516,494,89,5375.6
3,14,560.1637200291798,594,135,386,179252.48
2,19,696.1128103965223,312,82,137,87014.125
2,20,994.1889913007489,384,190,16,0.0
3,16,289.97956171634934,24,15,20,0.0
3,19,511.0796033571399,54,37,46,8688.36
3,20,288.15760782752267,462,15,342,86447.4
3,14,937.9586577874469,366,214,167,118182.834
3,17,887.7989512524754,234,218,151,14204.784
2,14,476.48502900468173,126,100,65,11435.64
3,14,255.4122494051419,138,45,104,19922.136
1,16,1133.605471486106,120,117,93,3400.83
3,19,320.2613600550139,12,7,12,0.0
3,18,212.7507198614506,132,102,128,5744.277
1,18,728.2690738506217,150,84,138,45880.947
2,20,698.1188539085886,582,51,310,196869.558
2,17,591.4046976034203,312,36,306,146668.44
1,20,842.914327875326,72,63,39,0.0
1,17,219.67037179271648,462,419,128,9006.47
3,18,396.32323063954607,60,37,58,7926.46
1,17,211.51632328684192,30,25,17,0.0
2,19,450.31656074145525,78,23,44,17112.046
3,19,1043.180724868001,408,125,40,0.0
2,15,244.11369725790905,348,145,169,36861.214
